{
    "workflowApiVersion": "1.1",
    "metaData": {
        "icon": "images/sms.png",
        "iconSmall": "images/smsSmall.png",
        "category": "message"
    },
    "type": "REST",
    "lang": {
        "en-US": {
            "name": "Pooja_QA3_2019",
            "description": "Pooja_QA3_2019"
        }
    },
    "arguments": {
        "execute": {
            "inArguments": [],
            "outArguments": [],
            "url": "https://ptsv2.com/t/Pooja_QA3_2019_RestActivity_exe/post",
            "verb": "POST",
            "body": "{\"Email\": \"%%emailAddr%%\", \"First Name\": \"%%FirstName%%\", \"Last Name\": \"%%LastName%%\"}",
            "header": "",
            "useJwt": false,
            "customerKey" : "f3568914-a8c6-45e3-86ec-7b0d9db3bd3e",
            "timeout": 10000
             
        }
    },
    "configurationArguments": {
        "applicationExtensionKey": "f3568914-a8c6-45e3-86ec-7b0d9db3bd3e",
        "save": {
            "url": "https://ptsv2.com/t/Pooja_QA3_2019_RestActivity_save/post",
            "body": "{\"Email\": \"%%emailAddr%%\", \"First Name\": \"%%FirstName%%\", \"Last Name\": \"%%LastName%%\"}",
            "header": "",
            "verb": "POST",
            "useJwt": false
        },
        "publish": {
             "url": "https://ptsv2.com/t/Pooja_QA3_2019_RestActivity_pub/post",
            "verb": "POST",
            "body": "{\"Email\": \"%%emailAddr%%\", \"First Name\": \"%%FirstName%%\", \"Last Name\": \"%%LastName%%\"}",
            "header": "",
            "useJwt": false
        },
            "unpublish": {
            "url": "https://ptsv2.com/t/Pooja_QA3_2019_RestActivity_unsub/post",
            "verb": "POST",
            "body": "{\"Email\": \"%%emailAddr%%\", \"First Name\": \"%%FirstName%%\", \"Last Name\": \"%%LastName%%\"}",
            "header": "",
            "useJwt": false
        },
        "validate": {
            "url": "https://ptsv2.com/t/Pooja_QA3_2019_RestActivity_val/post",
            "verb": "POST",
            "body": "{\"Email\": \"%%emailAddr%%\", \"First Name\": \"%%FirstName%%\", \"Last Name\": \"%%LastName%%\"}",
            "header": "",
            "useJwt": false
        }
    },
    "wizardSteps": [
        { "label": "Step 1", "key": "step1" },
        { "label": "Step 2", "key": "step2" },
        { "label": "Step 3", "key": "step3" },
        { "label": "Step 4", "key": "step4", "active": false }
    ],
    "userInterfaces": {
        "configModal": {
            "height": 200,
            "width": 300,
            "fullscreen": true
        }
    }
}